{
  "offers": [
    {
      "id": 1,
      "categoryId": "cruises",
      "title": "Zatoka Wraku Rejs",
      "header": "single-offer-header--shipwreck-tour",
      "listHeader": "category-all-items__item-img--shipwreck-tour",
      "priceAdult": 30,
      "priceChild": 20,
      "maxPeople": 80,
      "description": "Chcesz odwiedzić Zatokę Wraku, jedno z najsłynniejszych miejsc w Grecji, w jak najlepszej odsłonie?",
      "details": [
        "Chcesz odwiedzić Zatokę Wraku, jedno z najsłynniejszych miejsc w Grecji, w jak najlepszej odsłonie?",
        "Odkryj z nami jedno z najpiękniejszych miejsc w Grecji ale i na świecie – Zatokę Wraku. Wyobraź sobie błękit wody jakiego jeszcze nigdy wcześniej nie spotkałeś. Wysokie i piaskowe klify, które otulają całą zatokę. Do tego dodajmy złoty piasek, na którym spoczywa wrak statku Panagiotis wraz  z jego tajemniczą historią.",
        "Wszystko to powoduje, że każdy zachwyca się miejscem, które co roku odwiedza tysiące osób z całego świata. Podczas naszego rejsu popłyniemy także do Błękitnych Grot, które zaraz po Zatoce Wraku, określane są drugą najważniejszą atrakcją wyspy. To one od lat powodują, że ręka sama chwyta za aparat a oko nie może nadziwić się krystalicznej czystej wodzie. Wpłyniemy do jednej z jaskiń, która olśniewa swoimi kształtami, a w ich pobliżu zatrzymamy się na orzeźwiającą kąpiel.",
        "W programie wycieczki także plaża Xigia, która zachwyca nie tylko swoją kameralnością ale także pobliskimi źródłami siarki. Wskocz do wody i odpręż się w tym naturalnym zakyntowskim spa.",
        "Przy rezerwacji online €5 zniki!"
      ],
      "departure": "Wypłynięcie z portu Zakhyntos",
      "return": "Powrót do portu Zakhyntos",
      "hours": "8:15 - 14:30 / 14:00 - 19:00",
      "includes": [
        "Ubezpieczenie OC",
        "Transport autobusem z hotelu do portu/z portu do hotelu",
        "Rejs statkiem",
        "Godzinny przystanek na plaży Zatoki Wraku",
        "Przystanek na pływanie w Błękitnych grotach",
        "Xigii przystanek na pływanie",
        "Poczęstunek lokalnym arbuzem",
        "Opiekę przewodnika posługującego się językiem angielskim i polskim"
      ],
      "excludes": ["Posiłki i napoje"],
      "toExpect": [],
      "time": "6",
      "promo": false,
      "discount": 30,
      "flayers": ["./Shipwreck-cruise1.png"]
    },
    {
      "id": 121,
      "categoryId": "cruises",
      "title": "Zatoka Wraku Małą Łodzią",
      "header": "single-offer-header--shipwreck-tour-small",
      "listHeader": "category-all-items__item-img--shipwreck-tour-small",
      "priceAdult": 40,
      "priceChild": 30,
      "maxPeople": 35,
      "description": "Rejs małym statkiem",
      "details": [
        "Rejs małym statkiem",
        "Wycieczka zaczyna się od transportu na plażę Xigię, która zachwyca nie tylko swoją kameralnością ale także pobliskimi źródłami siarki. Wskocz do wody i odpręż się w tym naturalnym zakyntowskim spa.",
        "Odkryj z nami także jedno z najpiękniejszych miejsc w Grecji ale i na świecie – Zatokę Wraku. Wyobraź sobie błękit wody jakiego jeszcze nigdy wcześniej nie spotkałeś. Wysokie i piaskowe klify, które otulają całą zatokę. Do tego dodajmy złoty piasek, na którym spoczywa wrak statku Panagiotis wraz  z jego tajemniczą historią. ",
        "Wszystko to powoduje, że każdy zachwyca się miejscem, które co roku odwiedza tysiące osób z całego świata. Podczas naszego rejsu popłyniemy także do Błękitnych Grot, które zaraz po Zatoce Wraku, określane są drugą najważniejszą atrakcją wyspy. To one od lat powodują, że ręka sama chwyta za aparat a oko nie może nadziwić się krystalicznej czystej wodzie. Wpłyniemy do jednej z jaskiń, która olśniewa swoimi kształtami, przepłyniemy pod łukami skalnymi, a w ich pobliżu zatrzymamy się na orzeźwiającą kąpiel.",
        "Przy rezerwacji online €5 zniki!"
      ],
      "departure": "Wypłynięcie z portu Św. Mikołaja",
      "return": "Powrót do portu Św. Mikołaja",
      "hours": "10:15 - 15:30",
      "includes": [
        "Ubezpieczenie OC",
        "Transport autobusem z hotelu do portu/z portu do hotelu",
        "Rejs statkiem",
        "Godzinny przystanek na plaży Zatoki Wraku",
        "Odkrywanie formacji skalnych Błękitnych Grot",
        "Przystanek na pływanie w Błękitnych grotach",
        "Postój na plaży Xigii",
        "Opiekę przewodnika posługującego się językiem angielskim i polskim"
      ],
      "excludes": ["Posiłki i napoje"],
      "toExpect": [],
      "time": "5",
      "promo": false,
      "discount": 30,
      "flayers": ["./Shipwrec-by-small boat1.png"]
    },
    {
      "id": 2,
      "categoryId": "tours",
      "title": "Żółwie Caretta Caretta i Zachód Słońca",
      "header": "single-offer-header--tourtles-tour-sunset",
      "listHeader": "category-all-items__item-img--tourtles-tour-sunset",
      "priceAdult": "60",
      "priceChild": "50",
      "maxPeople": 30,
      "description": "Żółwie Caretta Caretta to jeden z największych naturalnych skarbów wyspy Zakynthos.",
      "details": [
        "Żółwie Caretta Caretta to jeden z największych naturalnych skarbów wyspy Zakynthos. Zapraszamy Państwa na zachwycające spotkanie z tymi pięknymi stworzeniami w ich naturalnym środowisku. Morską przygodę zaczniemy od poszukiwania żółwi w wodach zatoki Laganas, którą wybrały sobie na miejsce swojego pobytu podczas okresu rozrodczego.",
        "Spotkanie z nimi zachwyca nie tylko ze względu na ich niesamowite rozmiary, ale także towarzyszącym temu poszukiwaniu emocjom. Następnie popłyniemy w kierunku bezludnej wyspy Marathonisi, zwanej także Wyspą Żółwi.",
        "Następną atrakcją się przepiękne Jaskinie Keri, gdzie zapraszamy na skoki do wody z pokładu łodzi oraz kąpiel w przejrzystej i orzeźwiającej wodzie",
        "W drodze powrotnej odwiedzimy słynną wyspę Cameo, bardziej znaną jako Wyspa Ślubów.",
        "Po pełnym wrażeń rejsie zabierzemy Państwa prosto z portu busem na zachwycający zachód słońca obserwowany z wysokich klifów Keri lub Kampi, przy romantycznej kolacji w Agalas, lub z punktu widokowego najsłynniejszej plaży Zatoki Wraku. W każdym z tych miejsc zdjęcia wychodzą przepiękne."
      ],
      "departure": "Transport z Państwa hotelu, przystanku lub biura",
      "return": "Powrót do Państwa hotelu, przystanku lub biura",
      "hours": "15:00 - 21:30",
      "includes": [
        "Ubezpieczenie OC",
        "Transport autobusem w dwie strony",
        "Rejs statkiem w dwie strony",
        "Obserwacja zółwi w ich naturalnym środowisku",
        "Czas na zrobienie zdjęć i filmików zółwiom",
        "Wpłynięcie w groty Marythonisi, czas na zrobienie zdjęć",
        "Postój na plaży na wyspie Żółwi",
        "Czas na pływanie",
        "Czas wolny na wyspie Cameo",
        "Całkowity koszt paliwa",
        "Opiekę kierowcy",
        "Postój w tawernie (opcjonalnie)",
        "Postój w jednym z wybranych miejsc, aby podziwiać zachód słońca (Kampi, Zatoka Wraku, Keri)"
      ],
      "excludes": ["Posiłki i napoje", "Bilet wstępu na wyspę Cameo"],
      "toExpect": null,
      "time": "7",
      "promo": false,
      "discount": 15,
      "flayers": ["./turtles-and-sunset1.png"]
    }, {
      "id": 22,
      "categoryId": "cruises",
      "title": "Żółwie Caretta Caretta i Zachód Słońca",
      "header": "single-offer-header--tourtles-tour-sunset",
      "listHeader": "category-all-items__item-img--tourtles-tour-sunset",
      "priceAdult": "60",
      "priceChild": "50",
      "maxPeople": 30,
      "description": "Żółwie Caretta Caretta to jeden z największych naturalnych skarbów wyspy Zakynthos.",
      "details": [
        "Żółwie Caretta Caretta to jeden z największych naturalnych skarbów wyspy Zakynthos. Zapraszamy Państwa na zachwycające spotkanie z tymi pięknymi stworzeniami w ich naturalnym środowisku. Morską przygodę zaczniemy od poszukiwania żółwi w wodach zatoki Laganas, którą wybrały sobie na miejsce swojego pobytu podczas okresu rozrodczego.",
        "Spotkanie z nimi zachwyca nie tylko ze względu na ich niesamowite rozmiary, ale także towarzyszącym temu poszukiwaniu emocjom. Następnie popłyniemy w kierunku bezludnej wyspy Marathonisi, zwanej także Wyspą Żółwi.",
        "Następną atrakcją się przepiękne Jaskinie Keri, gdzie zapraszamy na skoki do wody z pokładu łodzi oraz kąpiel w przejrzystej i orzeźwiającej wodzie",
        "W drodze powrotnej odwiedzimy słynną wyspę Cameo, bardziej znaną jako Wyspa Ślubów.",
        "Po pełnym wrażeń rejsie zabierzemy Państwa prosto z portu busem na zachwycający zachód słońca obserwowany z wysokich klifów Keri lub Kampi, przy romantycznej kolacji w Agalas, lub z punktu widokowego najsłynniejszej plaży Zatoki Wraku. W każdym z tych miejsc zdjęcia wychodzą przepiękne."
      ],
      "departure": "Transport z Państwa hotelu, przystanku lub biura",
      "return": "Powrót do Państwa hotelu, przystanku lub biura",
      "hours": "15:00 - 21:30",
      "includes": [
        "Ubezpieczenie OC",
        "Transport autobusem w dwie strony",
        "Rejs statkiem w dwie strony",
        "Obserwacja zółwi w ich naturalnym środowisku",
        "Czas na zrobienie zdjęć i filmików zółwiom",
        "Wpłynięcie w groty Marythonisi, czas na zrobienie zdjęć",
        "Postój na plaży na wyspie Żółwi",
        "Czas na pływanie",
        "Czas wolny na wyspie Cameo",
        "Całkowity koszt paliwa",
        "Opiekę kierowcy",
        "Postój w tawernie (opcjonalnie)",
        "Postój w jednym z wybranych miejsc, aby podziwiać zachód słońca (Kampi, Zatoka Wraku, Keri)"
      ],
      "excludes": ["Posiłki i napoje", "Bilet wstępu na wyspę Cameo"],
      "toExpect": [],
      "time": "7",
      "promo": false,
      "discount": 15,
      "flayers": ["./turtles-and-sunset1.png"]
    },
    {
      "id": 3,
      "categoryId": "cruises",
      "title": "Żółwie Caretta Caretta i Morski Park Narodowy",
      "header": "single-offer-header--tourtles-tour",
      "listHeader": "category-all-items__item-img--tourtles-tour",
      "priceAdult": 30,
      "priceChild": 20,
      "maxPeople": 30,
      "description": "Żółwie Caretta Caretta to jeden z największych naturalnych skarbów wyspy Zakynthos.",
      "details": [
        "Żółwie Caretta Caretta to jeden z największych naturalnych skarbów wyspy Zakynthos. Zapraszamy Państwa na zachwycające spotkanie z tymi pięknymi stworzeniami w ich naturalnym środowisku. Morską przygodę zaczniemy od poszukiwania żółwi w wodach zatoki Laganas, którą wybrały sobie na miejsce swojego pobytu podczas okresu rozrodczego.",
        "Spotkanie z nimi zachwyca nie tylko ze względu na ich niesamowite rozmiary, ale także towarzyszącym temu poszukiwaniu emocjom. Następnie popłyniemy w kierunku bezludnej wyspy Marathonisi, zwanej także Wyspą Żółwi, która latem wabi licznymi żółwimi gniazdami i urokliwym ukształtowaniem. Sam jej kształt potrafi pobudzić naszą wyobraźnię – koniecznie sprawdźcie czy widzicie żółwia czy może śpiącego rycerza?!",
        "Następną atrakcją są przepiękne Jaskinie Keri, gdzie zapraszamy na skoki do wody z pokładu łodzi oraz kąpiel w przejrzystej i orzeźwiającej wodzie",
        "W drodze powrotnej odwiedzimy słynną drewnianą kładkę, która prowadzi na wyspę Cameo, bardziej znaną jako Wyspa Ślubów."
      ],
      "departure": "Rejs z Portu Agios Sostis",
      "return": "Powrót do Portu Agios Sostis",
      "hours": "11:00 - 15:30",
      "includes": [
        "Ubezpieczenie OC",
        "Przejazd autobusem",
        "Rejs statkiem w dwie strony",
        "Obserwacja zółwi w ich naturalnym środowisku",
        "Czas na zrobienie zdjęć i filmików zółwiom",
        "Przystanek na pływanie na plaży Marathonisi",
        "Przystanek na pływanie w Jaskiniach Keri",
        "Zwiedzanie grot Marathonisi",
        "Przystanek na zdjęcia na mostku do Wyspy Ślubów'"
      ],
      "excludes": ["Posiłki i napoje"],
      "toExpect": [],
      "time": "4.5",
      "promo": false,
      "discount": 15,
      "flayers": ["./turtles-trip1.png"]
    },
    {
      "id": 4,
      "categoryId": "BRAK",
      "title": "Olympia VIP",
      "header": "single-offer-header--olympia-tour",
      "listHeader": "category-all-items__item-img--olympia-tour",
      "priceAdult": "60",
      "priceChild": "60",
      "maxPeople": 20,
      "description": "Odkryj z nami legendarne miejsce narodzin Igrzysk Olimpijskich.",
      "details": [
        "MIEJSCE NARODZIN IGRZYSK OLIMPIJSKICH",
        "Wczesnym rankiem wsiądziemy na lokalny prom, po nieco ponad godzinie dotrzemy do portu Killini na Peloponezie. Dotarcie do świętego miejsca starożytnej Olimpii zajmie nam niecałą godzinę.",
        "Ta wycieczka VIP Olympia z przewodnikiem dostarczy Ci wielu informacji dotyczących starożytnych igrzysk olimpijskich, kultury greckiej oraz historii.",
        "Przed powrotem odwiedzimy także nową część wioski Olympii.",
        "Zniżka €5 przy rezerwacji online!"
      ],
      "departure": "Transport z Państwa hotelu",
      "return": "Powrót do Państwa hotelu",
      "hours": "8:00 - 18:00",
      "includes": [
        "Ubezpieczenie OC",
        "Transport Autobusem",
        "Rejs Promem",
        "Bilety na prom",
        "Opieka wykwalifikowanego anglojęzycznego przeowdnika (teren muzeum)"
      ],
      "excludes": ["Posiłki i napoje", "Biletu wstępu do muzeum Olympii"],
      "toExpect": [],
      "time": "10",
      "promo": false,
      "discount": 20
    },
    {
      "id": 5,
      "categoryId": "tours",
      "title": "Nurkowanie",
      "header": "single-offer-header--scuba-tour",
      "listHeader": "category-all-items__item-img--scuba-tour",
      "priceAdult": 55,
      "priceChild": 55,
      "maxPeople": 10,
      "description": "Świetna aktywność zarówno dla początkujących, jak i zaawansowanych poszukiwaczy przygód.",
      "details": [
        "Świetna aktywność zarówno dla początkujących, jak i zaawansowanych poszukiwaczy przygód. Nie martw się o sprzęt, zapewniamy wszystko, czego potrzebujesz, aby cieszyć się pięknem podwodnego świata Zakynthos",
        "Oferta dla początkujących: €55 jedno zejście pod wodę na 30 minut",
        "Oferta dla zaawansowanych : €85 dwa zejścia pod wodę!"
      ],
      "departure": "Transport z Państwa hotelu",
      "return": "Powrót do Państwa hotelu",
      "hours": "9:00 - 14:00 - dla Zaawansowanych / 13:00 - 18:00 - Początkujacy",
      "includes": [
        "Ubezpieczenie OC",
        "Transport autobusem w dwie strony",
        "Profesjonalną opiekę instruktora nurkowania",
        "Sprzęt do nurkowania",
        "Instruktaż odnośnie nurkowania",
        "Wypłynięcie łodzią i powrót (opcjonalnie)"
      ],
      "excludes": ["Posiłki i napoje", "Pakiet zdjęć oraz filmów"],
      "toExpect": [],
      "time": "5",
      "promo": false,
      "discount": 10
    },
    {
      "id": 6,
      "categoryId": "tours",
      "title": "Jazda Konna",
      "header": "single-offer-header--horse-tour",
      "listHeader": "category-all-items__item-img--horse-tour",
      "priceAdult": "25",
      "priceChild": "25",
      "maxPeople": 6,
      "description": "Dla aktywnie spędzających czas oferujemy jazdę konna na plaży w wiosce Tsilivi.",
      "details": [
        "Dla wszystkich, którzy uwielbiają aktywnie spędzać czas oferujemy jazdę konną po plaży lub po wzgórzach w pięknej wiosce Tsilivi.",
        "1 godzina jazdy konnej kosztuje €25, 2 godziny €45"
      ],
      "departure": "Transport z Państwa hotelu.",
      "return": "Powrót do Państwa hotelu.",
      "hours": "7:00 - 11:00 lub 16:00 - 20:00",
      "includes": [
        "Ubezpieczenie OC",
        "Transport autobusem w dwie strony",
        "Przejażdżkę konną na plaży lub górzystym terenie.",
        "Wyposażenie konia",
        "Opiekę instruktora jazdy konnej",
        "1 godzina jazdy / €25",
        "2 godziny jazdy / €45"
      ],
      "excludes": ["Posiłki i napoje"],
      "toExpect": [],
      "time": "1",
      "promo": false,
      "discount": 20
    },
    {
      "id": 7,
      "categoryId": "cruises",
      "title": "Wędkarstwo",
      "header": "single-offer-header--fishing-tour",
      "listHeader": "category-all-items__item-img--fishing-tour",
      "priceAdult": "60",
      "priceChild": "55",
      "maxPeople": 3,
      "description": "Codziennie rano dla pasjonatów tego sportu proponujemy trzygodzinną wyprawę wędkarską z doświadczonym rybakiem.",
      "details": [
        "Codziennie rano dla pasjonatów tego sportu proponujemy trzygodzinną wyprawę wędkarską z doświadczonym rybakiem.",
        "Odkryj turkusowe wody Morza Jońskiego na pokładzie tradycyjnej, profesjonalnej łodzi rybackiej. Doświadczenie przewodnika pozwolą na niesamowite doznania podczas połowu.",
        "Wyprawa o charakterze prywatnym"
      ],
      "departure": "Wyjazd z państwa hotelu",
      "return": "Powrót do państwa hotelu",
      "hours": "7:00 - 10:30",
      "includes": [
        "Ubezpieczenie OC",
        "Pokaz wędkarski",
        "Opiekę wędkarza",
        "Sprzęt wędkarski"
      ],
      "excludes": ["Posiłki oraz napoje"],
      "toExpect": [],
      "time": "3.5",
      "promo": false,
      "discount": 20
    },
    {
      "id": 8,
      "categoryId": "cruises",
      "title": "Żółwie Caretta Caretta i teren Narodowego Parku Morskiego Rejs",
      "header": "single-offer-header--tourtles-tour",
      "listHeader": "category-all-items__item-img--tourtles-tour",
      "priceAdult": "25",
      "priceChild": "15",
      "maxPeople": 80,
      "description": "Żółwie Caretta Caretta to jeden z największych naturalnych skarbów wyspy Zakinthos.",
      "details": [
        "Żółwie Caretta Caretta to jeden z największych naturalnych skarbów wyspy Zakinthos. Zapraszamy Państwa na zachwycające spotkanie z tymi pięknymi stworzeniami w ich naturalnym środowisku. Morską przygodę zaczniemy od poszukiwania żółwi w wodach zatoki Laganas, którą wybrały sobie na miejsce swojego pobytu podczas okresu rozrodczego.",
        "Spotkanie z nimi zachwyca nie tylko ze względu na ich niesamowite rozmiary, ale także towarzyszącym temu poszukiwaniu emocjom. Następnie popłyniemy w kierunku bezludnej wyspy Marathonisi, zwanej także Wyspą Żółwi, która latem wabi licznymi żółwimi gniazdami i urokliwym ukształtowaniem. Sam jej kształt potrafi pobudzić naszą wyobraźnię – koniecznie sprawdźcie czy widzicie żółwia czy może śpiącego rycerza?!",
        "To nie koniec naszego odkrywczego rejsu w południowej części nabrzeża, ponieważ naszą morską przygodę będziemy kontynuować eksplorując groty Keri, gdzie będziecie się mogli kąpać.",
        "Podpłyniemy także statkiem w pobliże wyspy Cameo, aby zrobić zdjęcia słynnej wyspie ślubów od strony ołtarza."
      ],
      "departure": "Początek rejsu w Porcie Zakynthos",
      "return": "Powrót do Porcie Zakynthos",
      "hours": "8:15 - 14:30 / 13:00 - 19:00",
      "includes": [
        "Ubezpieczenie OC",
        "Transport autobusem z hotelu do portu/z portu do hotelu",
        "Rejs statkiem w dwie strony",
        "Postój na plaży Wyspy Żółwi",
        "Przystanek na pływanie w Grotach Keri",
        "Odkrywanie Jaskiń Marathonissi",
        "Poczęstunek lokalnym melonem",
        "Opiekę polskiego przewodnika"
      ],
      "excludes": ["Posiłki i napoje"],
      "toExpect": null,
      "time": "6",
      "promo": false,
      "discount": 20
    },
    {
      "id": 9,
      "categoryId": "tours",
      "title": "Prawdziwe Zakynthos VIP",
      "header": "single-offer-header--real-zak",
      "listHeader": "category-all-items__item-img--real-zak",
      "priceAdult": "30",
      "priceChild": "25",
      "maxPeople": 20,
      "description": "Wyspa Zakynthos to nie tylko piękne krajobrazy gajów oliwnych, magiczne kolory wody czy fantastyczne smaki.",
      "details": [
        "Chcesz odkryć wyspę od strony lądu w pół dniowej wycieczce z lokalnym, doświadczonym przewodnikiem?",
        "Wyspa Zakynthos to nie tylko piękne krajobrazy gajów oliwnych, magiczne kolory wody czy fantastyczne smaki. To wyspa pełna życia, bogata w historię i ciekawostki związane z codziennością. Podczas wycieczki PRAWDZIWE ZAKYNTHOS właśnie to chcemy przed wami odkryć. Nasz program rozpoczynamy od wzgórza Stranis Hill, gdzie powstały słowa do hymnu narodowego Grecji. Udajemy się też na Bohali, z którego rozpościera się piękny widok na miasto Zakynthos oraz południowo-wschodnią część wyspy.",
        "Przejeżdżając przez stolicę udajemy się na przylądek Keri, gdzie zasmakujemy greckiej kawy jak i pięknych widoków na klif i skały Mizithres. Eksplorując południowo- zachodnią stronę wyspy przejeżdżamy przez wioski Agalas, Kiliomenos oraz Ag. Leon – tu zatrzymujemy się  w lokalnej tłoczni oliwy Vouno. Zwiedzamy rejon Kampi, gdzie mamy najstarsze ślady cywilizacji na Zante. W wiosce Exo Chora zatrzymujemy się na zdjęcia przy najstarszym drzewie oliwnym na wyspie, a także degustację tutejszych produktów w farmie Lekkas.",
        "Następnie udajemy się do monastyru  w wiosce Anafonitria, gdzie zatrzymujemy się także na lunch w tawernie, w której każdy poczuje się jak na rodzinnym obiedzie. Następnie udajemy się na platformę widokową Zatoki Wraku, gdzie macie możliwość zobaczenia plaży ze słynnym wrakiem statku Panagiotis. Ostatnim punktem programu jest czas na relaks – kąpiel w wodach siarkowych Xigia."
      ],
      "departure": "Transport z Państwa hotelu",
      "return": "Powrót do Państwa hotelu",
      "hours": "9:30 - 17:30",
      "includes": [
        "Ubezpieczenie OC",
        "Przejazd busem",
        "Przystanek w wiosce Bohali punkcie widokowym Zakynthos miasta",
        "Przystanek na wzgórzu Strani",
        "Przystanek na zdjęcia przy skałach Mizithres",
        "Zwiedzanie tłoczni oliwy",
        "Odkrywanie najstarszych śladów cywilizacji na Zante",
        "Przystanek w wiosce Exo Chora (2000 letnie drzewo oliwne)",
        "Degustacja lokalnych produktów",
        "Zwiedzanie monasteru św. Anafonitrii",
        "Przystanek na obiad w tawernie",
        "Przystanek na punkcie widokowym Zatoki Wraku",
        "Przystanek na pływanie na plaży Xigia",
        "Opiekę polskiego przewodnika"
      ],
      "excludes": ["Posiłki i napoje"],
      "toExpect": [],
      "time": "8",
      "promo": false,
      "discount": 25
    },
    {
      "id": 10,
      "categoryId": "tours",
      "title": "Day Tour - Zatoka Wraku z Góry i Dołu, całodniowa wycieczka VIP",
      "header": "single-offer-header--round-trip",
      "listHeader": "category-all-items__item-img--round-trip",
      "priceAdult": 60,
      "priceChild": 45,
      "maxPeople": 20,
      "description": "Przygotuj się na dzień pełen wrażeń, który zaczynamy od przejazdu na wzgórze Bohali.",
      "details": [
        "Chciałbyś w jeden dzień zobaczyć Zatokę Wraku z góry i z dołu a także zobaczyć inne ciekawe miejsca na wyspie? Ta wycieczka jest dla Ciebie,",
        "Przygotuj się na dzień pełen wrażeń, który zaczynamy od przejazdu na wzgórze Bohali, skąd rozpościera się jeden z najpiękniejszych widoków na wyspie Zakynthos. Kontynuując wycieczkę udajemy się na Strani`s Hill, gdzie powstawały słowa do hymnu narodowego Grecji oraz gdzie możesz odwiedzić lokalny amfiteatr.",
        "Następnie udajemy się na kąpiel w wodach siarkowych Xigia – naturalnym zakynthowskim SPA. Przejeżdżając wschodnim nabrzeżem jedziemy do portu, skąd wyruszany na rejs do Zatoki Wraku, gdzie każdy ma czas na zdjęcia i kąpiel. W drodze powrotnej Błękitne Groty, które odwiedzamy od wewnątrz, przepływamy pod łukami skalnymi oraz zatrzymujemy się w ich pobliżu na kąpiel.",
        "Po przygodzie na łodzi udajemy się na przerwę lunchową, gdzie będziecie mogli popróbować lokalnych potraw (lunch we własnym zakresie). Zwieńczeniem wycieczki jest przepiękna panorama na Zatokę Wraku, czyli wizyta na punkcie widokowym, z którego możecie wykonać pamiątkowe zdjęcia. Zawsze w programie dodatkowy stop będący niespodzianką."
      ],
      "departure": "Transport z Państwa hotelu",
      "return": "Powrót do Państwa hotelu",
      "hours": "9:00 - 18:30",
      "includes": [
        "Ubezpieczenie OC",
        "Przejazd busem",
        "Przystanek w wiosce Bohali",
        "Przystanek na wzgórzu Stranis",
        "Przystanek na pływanie na plaży Xigia",
        "Przystanek na pływanie na plaży Makris Gialos",
        "Przystanek na punkcie widokowym Zatoki Wraku",
        "Rejs statkiem na plażę Zatoki Wraku",
        "Zwiedzanie Błękitnych Grot",
        "Przystanek na pływanie w Błękitnych Grotach",
        "Zwiedzanie tłoczni oliwy (opcjonalnie)",
        "Przystanek w lokalnej tawernie",
        " Przystanek w wiosce Exo Chora (2000 dzrewo oliwne)(opcjonalnie)",
        "Zwiedzanie winiarni (opcjonalnie)",
        "Opiekę polskiego lub angielskiego przewodnika"
      ],
      "excludes": ["Posiłki i napoje"],
      "toExpect": null,
      "time": "9.5",
      "promo": false,
      "discount": 30,
      "flayers": ["./Daytour1.png"]
    },{
      "id": 101,
      "categoryId": "cruises",
      "title": "Day Tour - Zatoka Wraku z Góry i Dołu, całodniowa wycieczka VIP",
      "header": "single-offer-header--round-trip",
      "listHeader": "category-all-items__item-img--round-trip",
      "priceAdult": 60,
      "priceChild": 45,
      "maxPeople": 20,
      "description": "Przygotuj się na dzień pełen wrażeń, który zaczynamy od przejazdu na wzgórze Bohali.",
      "details": [
        "Chciałbyś w jeden dzień zobaczyć Zatokę Wraku z góry i z dołu a także zobaczyć inne ciekawe miejsca na wyspie? Ta wycieczka jest dla Ciebie,",
        "Przygotuj się na dzień pełen wrażeń, który zaczynamy od przejazdu na wzgórze Bohali, skąd rozpościera się jeden z najpiękniejszych widoków na wyspie Zakynthos. Kontynuując wycieczkę udajemy się na Strani`s Hill, gdzie powstawały słowa do hymnu narodowego Grecji oraz gdzie możesz odwiedzić lokalny amfiteatr.",
        "Następnie udajemy się na kąpiel w wodach siarkowych Xigia – naturalnym zakynthowskim SPA. Przejeżdżając wschodnim nabrzeżem jedziemy do portu, skąd wyruszany na rejs do Zatoki Wraku, gdzie każdy ma czas na zdjęcia i kąpiel. W drodze powrotnej Błękitne Groty, które odwiedzamy od wewnątrz, przepływamy pod łukami skalnymi oraz zatrzymujemy się w ich pobliżu na kąpiel.",
        "Po przygodzie na łodzi udajemy się na przerwę lunchową, gdzie będziecie mogli popróbować lokalnych potraw (lunch we własnym zakresie). Zwieńczeniem wycieczki jest przepiękna panorama na Zatokę Wraku, czyli wizyta na punkcie widokowym, z którego możecie wykonać pamiątkowe zdjęcia. Zawsze w programie dodatkowy stop będący niespodzianką."
      ],
      "departure": "Transport z Państwa hotelu",
      "return": "Powrót do Państwa hotelu",
      "hours": "9:00 - 18:30",
      "includes": [
        "Ubezpieczenie OC",
        "Przejazd busem",
        "Przystanek w wiosce Bohali",
        "Przystanek na wzgórzu Stranis",
        "Przystanek na pływanie na plaży Xigia",
        "Przystanek na pływanie na plaży Makris Gialos",
        "Przystanek na punkcie widokowym Zatoki Wraku",
        "Rejs statkiem na plażę Zatoki Wraku",
        "Zwiedzanie Błękitnych Grot",
        "Przystanek na pływanie w Błękitnych Grotach",
        "Zwiedzanie tłoczni oliwy (opcjonalnie)",
        "Przystanek w lokalnej tawernie",
        " Przystanek w wiosce Exo Chora (2000 dzrewo oliwne)(opcjonalnie)",
        "Zwiedzanie winiarni (opcjonalnie)",
        "Opiekę polskiego lub angielskiego przewodnika"
      ],
      "excludes": ["Posiłki i napoje"],
      "toExpect": null,
      "time": "9.5",
      "promo": false,
      "discount": 30,
      "flayers": ["./Daytour1.png"]
    },
    {
      "id": 11,
      "categoryId": "tours",
      "title": "Kefalonia - Królowa Morza Jońskiego VIP",
      "header": "single-offer-header--kefalonia-tour",
      "listHeader": "category-all-items__item-img--kefalonia-tour",
      "priceAdult": "60",
      "priceChild": "50",
      "maxPeople": 20,
      "description": "Interesuje Cię sąsiednia, dziewicza wyspa?",
      "details": [
        "nteresuje Cię sąsiednia, dziewicza wyspa, chcesz zwiedzić wszystkie jej najciekawsze miejsca w jeden dzień?",
        "Kefalonia – jeden z największych skarbów Morza Jońskiego. Proszę sobie wyobrazić miejsce, gdzie życie toczy się w rytmie siga-siga, a mieszkańcy wyspy nadal stronią od masowej turystyki. Wszystko to pośród niczym nieskażonej przyrody, której obserwacja całkowicie odpręża. Podczas jednego dnia odkryjemy to co najpiękniejszego wyspa ma nam do zaoferowania. Na Kefalonię udamy się busem oraz poprzez przeprawę promową. Zwiedzanie zaczniemy od przejazdu do Jaskini Drogarati, która wypełniona jest przepięknymi stalaktytami i stalagmitami, a nazywana jest komnatą apoteozy.",
        "Ze względu na swoją świetną akustykę – nie wierzysz? Sprawdź sam. Jaskinia i jeziorko Melissani – kolejna atrakcja, nazywana numerem jeden wyspy - znajduje się na liście życzeń każdej osoby, która przyjeżdża na wyspę. Weź udział w romantycznym rejsie po jeziorze ukrytym w jaskini. Czy nie brzmi to wspaniale? Na jednej z malowniczych plaż na wschodnim wybrzeżu będziecie mieć czas na kąpiel oraz lunch. Następnie udajemy się na punkt widokowy plaży Myrtos, której błękit wody oraz wysokość otaczającego jej klifu powoduje zachwyt, który można opisać tylko słowem WOW!",
        "W drodze powrotnej odwiedzimy stolicę wyspy - Argostoli. Zatrzymamy się na zdjęcia i tam też usłyszycie ciekawostki związane z tym miejscem.",
        "Małe grupy pozwalają dokładniej zwiedzić wyspę."
      ],
      "departure": "Transport z Państwa hotelu",
      "return": "Powrót do Państwa hotelu",
      "hours": "8:30 - 20:00",
      "includes": [
        "Ubezpieczenie OC",
        "Przejazd minibusem",
        "Rejs promem",
        "Zwiedzanie Kefaloni busem",
        "Przystanek w jaskini Melissani",
        "Przystanek w jaskini Dragarati",
        "Przystanek na punkcie widokowym plaży Myrtos",
        "Przystanek na pływanie na jednej z plaż",
        "Przystanek w wiosce Agia Efimia",
        " Przystanek w mieście Argostoli",
        "Opiekę polskiego przewodnika"
      ],
      "excludes": [
        "Bilet wstępu do jaskini Melisani",
        "Bilet wstępu do jaskini Dragorati",
        "Posiłki i napoje"
      ],
      "toExpect": null,
      "time": "10",
      "promo": false,
      "discount": 25,
      "flayers": ["./Kefalonia1.png"]
    },
    {
      "id": 13,
      "categoryId": "tours",
      "title": "Zachód słońca wycieczka VIP",
      "header": "single-offer-header--sunset-tour",
      "listHeader": "category-all-items__item-img--sunset-tour",
      "priceAdult": "40",
      "priceChild": "35",
      "maxPeople": 20,
      "description": "Zachwycający zachód słońca obserwowany z wysokich klifów Keri lub Kampi,",
      "details": [
        "Zachwycający zachód słońca obserwowany z wysokich klifów Keri lub Kampi, przy romantycznej kolacji w Agalas, lub z punktu widokowego najsłynniejszej plaży Zatoki Wraku. W każdym z tych miejsc zdjęcia wychodzą przepiękne."
      ],
      "departure": "Transport z Państwa hotelu",
      "return": "Powrót do Państwa hotelu",
      "hours": "18:30 - 21:00",
      "includes": [
        "Ubezpieczenie OC",
        "Przejazd minibusem",
        "Opiekę doświadczonego kierowcy",
        "Przystanek na wybranym miejscu obserwacji zachodu słońca (Kampi, Zatoka Wraku , Keri)",
        "Przystanek w Tawernie (opcjonalnie)"
      ],
      "excludes": ["Posiłki i napoje"],
      "toExpect": null,
      "time": "3",
      "promo": false,
      "discount": 25,
      "flayers": ["./sunset1.png"]
    },
    {
      "id": 14,
      "categoryId": "tours",
      "title": "Łucznictwo",
      "header": "single-offer-header--archery",
      "listHeader": "category-all-items__item-img--archery",
      "priceAdult": "55",
      "priceChild": "50",
      "maxPeople": 10,
      "description": "Spróbuj łucznica wraz z lokalnym klubem łuczniczym na Zakynthos.",
      "details": [
        "Baw się dobrze, sprawdzając swoje umiejętności w łucznictwie polowym w przyjaznym środowisku wiejskim.",
        "Żadne wcześniejsze umiejętności nie są wymagane, ponieważ łucznictwo to sport dla całej rodziny w wieku od 8 do 88 lat."
      ],
      "departure": "Transport z Państwa hotelu",
      "return": "Powrót do Państwa hotelu",
      "hours": "10:30 - 12:30",
      "includes": ["Ubezpieczenie OC", "Transport busem", "Łucznictwo"],
      "excludes": ["Posiłki i napoje"],
      "toExpect": null,
      "time": "2",
      "promo": false,
      "discount": 25
    },
    {
      "id": 15,
      "categoryId": "tours",
      "title": "Water Park",
      "header": "single-offer-header--water-park",
      "listHeader": "category-all-items__item-img--water-park",
      "priceAdult": "25",
      "priceChild": "17",
      "maxPeople": 20,
      "description": "Jeden z największych Water Park-ów w Grecji, położony w wiosce Sarakindo.",
      "details": [
        "Jeden z największych Water Park-ów w Grecji, położony w wiosce Sarakindo.",
        "Świetna zabawa dla każdej grupy wiekowej. Zjeżdżalnie każdej wielkości, baseny, jacuzzi. Wypoczynek i zabawa nie tylko dla najmłodszych."
      ],
      "departure": "Transport z Państwa hotelu",
      "return": "Powrót do Państwa hotelu",
      "hours": "10:00 - 17:00",
      "includes": [
        "Ubezpieczenie OC",
        "Transport autobusem",
        "Bilet wstępu do Water Parku",
        "Wszystkie atrakcje Water Parku w Sarakinado"
      ],
      "excludes": ["Posiłki i napoje"],
      "toExpect": null,
      "time": "7",
      "promo": false,
      "discount": 25
    },
    {
      "id": 16,
      "categoryId": "tours",
      "title": "Jeep Safari",
      "header": "single-offer-header--jeep-safari",
      "listHeader": "category-all-items__item-img--jeep-safari",
      "priceAdult": "40",
      "priceChild": "40",
      "maxPeople": 8,
      "description": "Zjedź z utartych szlaków turystycznych. Poznaj Zakynthos z całkiem innej strony – Off Road.",
      "details": [
        "Poza utartymi szlakami. Poznaj Zakynthos z zupełnie innej strony - Off Road. Interesujesz się życiem ludzi w górzystej części Zakynthos. Odkryj kulturę, jedzenie i mniej uczęszczaną część wyspy.",
        "Poza utartymi szlakami. Poznaj Zakynthos z zupełnie innej strony - Off Road. Interesujesz się życiem ludzi w górzystej części Zakynthos. Odkryj kulturę, jedzenie i mniej uczęszczaną część wyspy.",
        "Zabierzemy Cię także do małej rodzinnej tawerny na obiad."
      ],
      "departure": "Transport z Państwa hotelu",
      "return": "Powrót do Państwa hotelu",
      "hours": "9:30 - 17:00",
      "includes": [
        "Ubezpieczenie OC",
        "Wycieczkę Jeepem",
        "Przystanek w wiosce Lagopodo oraz zwiedzanie lokalnej farmy",
        "Przystanek w wiosce Louha",
        "Przystanek w Antennas na szczycie Vrahionas (najwyższa góra)",
        "Przystanek w wiosce Kampi na obiad",
        "Zwiedzanie monastyru Św. Georgiosa Krimnona",
        "Przystanek na punkcie widokowym Zatoki Wraku"
      ],
      "excludes": ["Posiłki i napoje"],
      "toExpect": null,
      "time": "10",
      "promo": false,
      "discount": 25
    },
    {
      "id": 17,
      "categoryId": "tours",
      "title": "Zakynthos nocą VIP",
      "header": "single-offer-header--around-island-cruise",
      "listHeader": "category-all-items__item-img--around-island-cruise",
      "priceAdult": "5",
      "priceChild": "-",
      "maxPeople": 15,
      "description": "Wycieczkę zaczynamy od wioski Bohali – tylko stąd rozpościera się widok na całe miasto Zakynthos.",
      "details": [
        "Wycieczkę zaczynamy od wioski Bohali – tylko stąd rozpościera się widok na całe miasto Zakynthos. Wyobraź sobie morze, port i światła zapalające się w mieście.. a wszystko to będziesz miał okazje zobaczyć z budzącego się po sjeście wioski na wzgórzu.",
        "Następnie jedziemy do centrum, aby lepiej poznać zwyczaje mieszkańców, zrobić zakupy przy ulicy Aleksandru Roma, czy pospacerować placem Solomosa.",
        "*koszt wycieczki 5 € od osoby przy zakupie dwóch wycieczek, dzieci do 12 roku życia za darmo.",
        "*przy skorzystaniu z trzech innych ofert wycieczka darmowa"
      ],
      "departure": "Transport z Państwa hotelu",
      "return": "Powrót do Państwa hotelu",
      "hours": "17:30 - 20:30",
      "includes": [
        "Ubezpieczenie OC",
        "Transfer busem",
        "Przystanek na punkcie widokowym w wiosce Bohali",
        "Czas wolny w mieście Zakynthos"
      ],
      "excludes": ["Posiłki i napoje", "Opieki przewodnika"],
      "toExpect": null,
      "time": "3",
      "promo": false,
      "discount": 25
    },
    {
      "id": 18,
      "categoryId": "transport",
      "title": "Mercedes-Benz Bus",
      "header": "single-offer-header--transport",
      "listHeader": "category-all-items__item-img--mercedes",
      "priceAdult": 130,
      "priceChild": false,
      "maxPeople": 23,
      "hours": "Do ustalenia.",
      "description": "Mercedes-Benz bus 23 - osobowy",
      "details": [
        "Mercedes-Benz bus 23 - osobowy",
        "Mercedes-Benz bus 20 - osobowy",
        "Wypożycz busa i zorganizuj swoją własną wycieczkę dla przyjaciół lub rodziny"
      ],
      "imgs": ["./bus1-a.jpg", "./bus1-b.jpg", "./bus1-c.jpg"],
      "time": "24",
      "promo": false,
      "discount": 25
    },
    {
      "id": 19,
      "categoryId": "transport",
      "title": "Autobus",
      "header": "single-offer-header--transport",
      "listHeader": "category-all-items__item-img--bus-big img-rentals",
      "priceAdult": 180,
      "priceChild": false,
      "maxPeople": 58,
      "hours": "Do ustalenia.",
      "description": "Mercedes-Benz dla 58 ludzi.",
      "details": [
        "Wynajmij busa i odkryjcie wyspę po swojemu.",
        "Wypożycz autobus i zorganizuj swoją własną wycieczkę."
      ],
      "imgs": ["./50bus.jpg"],
      "time": "24",
      "promo": false,
      "discount": 25
    },
    {
      "id": 20,
      "categoryId": "transport",
      "title": "Średni Bus",
      "header": "single-offer-header--transport",
      "listHeader": "category-all-items__item-img--bus-medium img-rentals",
      "priceAdult": 110,
      "priceChild": false,
      "maxPeople": 15,
      "hours": "Do ustalenia.",
      "description": "Średniej wielkości bus 15 - osobowy.",
      "details": [
        "Średniej wielkości bus 15 - osobowy. Ford Transit",
        "Wypożycz busa i zorganizuj swoją własną wycieczkę dla przyjaciół lub rodziny"
      ],
      "imgs": ["./van-1.png", "./van-2.png", "./van-3.png"],
      "time": "24",
      "promo": false,
      "discount": 25
    },
    {
      "id": 21,
      "categoryId": "transport",
      "title": "Mały Bus",
      "header": "single-offer-header--transport",
      "listHeader": "category-all-items__item-img--bus-mini img-rentals",
      "priceAdult": 80,
      "priceChild": false,
      "maxPeople": 8,
      "hours": "Do ustalenia.",
      "description": "Mały bus Citroen Spacetourer 8 - osobowy.",
      "details": [
        "Bus Citroen Spacetourer 8 - osobowy.",
        "Bus Nissan NV 300 8 - osobowy",
        "Bus Nissan Primastar 8 - osobowy",
        "Wypożycz busa i zorganizuj swoją własną wycieczkę dla przyjaciół lub rodziny"
      ],
      "imgs": ["./8-seat.jpg"],
      "time": "24",
      "promo": false,
      "discount": 25
    },
    {
      "id": 22,
      "categoryId": "auto-moto",
      "title": "Skuter 50 CC",
      "header": "single-offer-header--auto-moto",
      "listHeader": "category-all-items__item-img--scooter-small img-rentals ",
      "priceAdult": "25",
      "priceChild": false,
      "maxPeople": 2,
      "hours": "Do ustalenia.",
      "description": "Mały skuter 50CC.",
      "details": [
        "Wynajmij skuter, zjedź ze szlaku i odkryj miejsca z dala od turystów."
      ],
      "includes": [
        "Ubezpieczenie OC",
        "1/2 dni: €25/dzień",
        "3/4 dni: €23/dzień",
        "5+ dni: €20/dzień",
        "Indywidualny plan podróży"
      ],
      "imgs": ["./scooter-50CC.jpg", "./quad300.jpg"],
      "time": "24",
      "promo": false,
      "discount": 25
    },
    {
      "id": 23,
      "categoryId": "auto-moto",
      "title": "Skuter 125 CC",
      "header": "single-offer-header--auto-moto",
      "listHeader": "category-all-items__item-img--scooter-small img-rentals ",
      "priceAdult": "25",
      "priceChild": false,
      "maxPeople": 2,
      "hours": "Do ustalenia.",
      "description": "Średniej wielkości skuter 125CC.",
      "details": [
        "Średniej wielkości skuter 125CC.",
        "Wypożycz skuter aby odkryć mało znane miejsca."
      ],
      "includes": [
        "Ubezpieczenie OC",
        "1/2 dni: €25/dzień",
        "3/4 dni: €22/dzień",
        "5+ dni: €20/dzień",
        "Indywidualny plan podróży"
      ],
      "imgs": ["./scooter-50CC.jpg"],
      "time": "24",
      "promo": false,
      "discount": 25
    },
    {
      "id": 24,
      "categoryId": "auto-moto",
      "title": "Skuter 150CC",
      "header": "single-offer-header--auto-moto",
      "listHeader": "category-all-items__item-img--scooter-small img-rentals ",
      "priceAdult": "35",
      "priceChild": false,
      "maxPeople": 2,
      "hours": "Do ustalenia.",
      "description": "Średniej wielkości skuter 150CC.",
      "details": [
        "Średniej wielkości skuter 150CC.",
        "Wypożycz skuter aby odkryć mało znane miejsca."
      ],
      "includes": [
        "Ubezpieczenie OC",
        "1/2 dni: €25/dzień",
        "3/4 dni: €22/dzień",
        "5+ dni: €20/dzień"
      ],
      "imgs": ["./scooter-50CC.jpg"],
      "time": "24",
      "promo": false,
      "discount": 25
    },
    {
      "id": 25,
      "categoryId": "auto-moto",
      "title": "Quad 300 CC",
      "header": "single-offer-header--auto-moto",
      "listHeader": "category-all-items__item-img--quad img-rentals ",
      "priceAdult": "50",
      "priceChild": false,
      "maxPeople": 2,
      "hours": "Do ustalenia.",
      "description": "Duzy Quad 300CC. Idealny do OFF Road.",
      "details": [
        "Wypożycz quad aby odkryć mało znane miejsca. Zwiedzaj Zakynthos bez pośpiechu według własnego planu, poza utartymi ścieżkami",
        "Quad 300CC doskonały na OFF Road."
      ],
      "includes": [
        "Ubezpieczenie OC",
        "1/2 dni: €50/dzień",
        "3/4 dni: €48/dzień",
        "5+ dni: €45/dzień",
        "Indywidualny plan zwiedzania"
      ],
      "imgs": ["./quad300.jpg"],
      "time": "24",
      "promo": false,
      "discount": 25
    },
    {
      "id": 252,
      "categoryId": "auto-moto",
      "title": "Quad 450 CC",
      "header": "single-offer-header--auto-moto",
      "listHeader": "category-all-items__item-img--quad img-rentals ",
      "priceAdult": "55",
      "priceChild": false,
      "maxPeople": 2,
      "hours": "Do ustalenia.",
      "description": "Duzy Quad 450CC. Idealny do OFF Road.",
      "details": [
        "Wypożycz quad aby odkryć mało znane miejsca. Zwiedzaj Zakynthos bez pośpiechu według własnego planu, poza utartymi ścieżkami",
        "Quad 450CC doskonały na OFF Road."
      ],
      "includes": [
        "Ubezpieczenie OC",
        "1/2 dni: €55/dzień",
        "3/4 dni: €50/dzień",
        "5+ dni: €45/dzień"
      ],
      "imgs": ["./quad300.jpg"],
      "time": "24",
      "promo": false,
      "discount": 25
    },
    {
      "id": 26,
      "categoryId": "auto-moto",
      "title": "Kia Picanto / Nissan Micra",
      "header": "single-offer-header--auto-moto",
      "listHeader": "category-all-items__item-img--kia-picanto img-rentals",
      "priceAdult": 50,
      "priceChild": false,
      "maxPeople": 5,
      "hours": "Do ustalenia.",
      "description": "Kia Picanto lub Nissan Micra.",
      "details": [
        "Kia Picanto lub Nissan Micra.",
        "Wypożycz samochód aby odkryć mało znane miejsca. Zwiedzaj Zakynthos bez pośpiechu według własnego planu",
        "Idealna opcja dla rodzin i grup."
      ],
      "includes": [
        "Ubezpieczenie OC",
        "1/2 dni: €50/dzień",
        "3/4 dni: €48/dzień",
        "5+ dni: €45/dzień",
        "Indywidualny plan zwiedzania",
        "Fotelik dziecięcy"
      ],
      "imgs": ["./kia-picanto.jpg", "./nissan-micra.png"],
      "time": "24",
      "promo": false,
      "discount": 25
    },
    {
      "id": 27,
      "categoryId": "auto-moto",
      "title": "Ford Focus / Hyundai I20",
      "header": "single-offer-header--auto-moto",
      "listHeader": "category-all-items__item-img--ford-focus img-rentals",
      "priceAdult": 55,
      "priceChild": false,
      "maxPeople": 5,
      "hours": "Do ustalenia",
      "description": "Ford Focus lub Hyundai I20 do wynajęcia.",
      "details": [
        "Wypożycz samochód aby odkryć mało znane miejsca. Zwiedzaj Zakynthos bez pośpiechu według własnego planu",
        "Idealny dla rodzin i grup.",
        "Oba auta posiadają manualną skrzynię biegów"
      ],
      "includes": [
        "Ubezpieczenie OC",
        "1/2 dni: €55/dzień",
        "3/4 dni: €53/dzień",
        "5+ dni: €50/dzień",
        "Indywidualny plan zwiedzania",
        "Fotelik dziecięcy"
      ],
      "imgs": ["./ford-focus.png", "./hyundai-i20.png"],
      "time": "24",
      "promo": false,
      "discount": 25
    },
    {
      "id": 28,
      "categoryId": "auto-moto",
      "title": "Hyundai I20 Automatic",
      "header": "single-offer-header--auto-moto",
      "listHeader": "category-all-items__item-img--hyundai-i20 img-rentals",
      "priceAdult": 60,
      "priceChild": false,
      "maxPeople": 5,
      "hours": "Do ustalenia",
      "description": "Hyundai I20 Automatic to rent.",
      "details": [
        "Wypożycz samochód aby odkryć mało znane miejsca. Zwiedzaj Zakynthos bez pośpiechu według własnego planu",
        "Idealny dla rodzin oraz grup."
      ],
      "includes": [
        "Ubezpieczenie OC",
        "1/2 dni: €60/dzień",
        "3/4 dni: €58/dzień",
        "5+ dni: €55/dzień",
        "Indywidualny plan zwiedzania",
        "Fotelik dziecięcy"
      ],
      "imgs": ["./hyundai-i20.png"],
      "time": "24",
      "promo": false,
      "discount": 25
    },
    {
      "id": 29,
      "categoryId": "auto-moto",
      "title": "KIA Rio Diesel",
      "header": "single-offer-header--auto-moto",
      "listHeader": "category-all-items__item-img--kia-rio img-rentals",
      "priceAdult": 55,
      "priceChild": false,
      "maxPeople": 5,
      "hours": "Do ustalenia",
      "description": "KIA Rio Diesel do wynajęcia",
      "details": [
        "Wypożycz samochód aby odkryć mało znane miejsca. Zwiedzaj Zakynthos bez pośpiechu według własnego planu",
        "Idealny dla rodzin z dziećmi i grup."
      ],
      "includes": [
        "Ubezpieczenie OC",
        "1/2 dni: €55/dzień",
        "3/4 dni: €53/dzień",
        "5+ dni: €50/dzień",
        "Indywidualny plan zwiedzania",
        "Fotelik dziecięcy"
      ],
      "imgs": ["./kia-rio.png"],
      "time": "24",
      "promo": false,
      "discount": 25
    },
    {
      "id": 30,
      "categoryId": "auto-moto",
      "title": "Suzuki Jimny",
      "header": "single-offer-header--auto-moto",
      "listHeader": "category-all-items__item-img--suzuki-jimny img-rentals",
      "priceAdult": 70,
      "priceChild": false,
      "maxPeople": 4,
      "hours": "Do ustalenia",
      "description": "Suzuki Jimny do wynajęcia.",
      "details": [
        "Wypożycz samochód aby odkryć mało znane miejsca. Zwiedzaj Zakynthos bez pośpiechu według własnego planu poza utartymi ścieżkami",
        "Idealny dla rodzin oraz grup."
      ],
      "includes": [
        "Ubezpieczenie OC",
        "1/2 dni: €70/dzień",
        "3/4 dni: €68/dzień",
        "5+ dni: €65/dzień",
        "Indywidualny plan zwiedzania",
        "Foteli dziecięcy"
      ],
      "imgs": ["./suzuki-jimny.png"],
      "time": "24",
      "promo": false,
      "discount": 25
    },
    {
      "id": 31,
      "categoryId": "BRAK",
      "title": "Jet Ski",
      "header": "single-offer-header--motor-boat",
      "listHeader": "category-all-items__item-img--jet-ski img-rentals",
      "priceAdult": "30",
      "priceChild": false,
      "maxPeople": 3,
      "hours": "Do ustalenia",
      "description": "Jet Ski dla 3 osób.",
      "details": ["Jet Ski dla 3 osób."],
      "includes": [
        "Ubezpieczenie OC",
        "10 min: €30/dzień",
        "? min: €35/dzień",
        "? min: €40/dzień"
      ],
      "imgs": ["./jet-ski.jpg"],
      "time": "1",
      "promo": false,
      "discount": 25
    },
    {
      "id": 33,
      "categoryId": "motor-boat",
      "title": "Motorówka Poseidon",
      "header": "single-offer-header--motor-boat",
      "listHeader": "category-all-items__item-img--poseidon img-rentals",
      "priceAdult": "250",
      "priceChild": false,
      "maxPeople": 12,
      "hours": "Do ustalenia.",
      "description": "Motorówka dla 12 osób.",
      "details": [
        "Zarezerwuj prostą w uzytkowaniu łódkę motorową, przezyj wodną przygodę i rozkoszuj się piękną pogodą oraz błękitem wody. Świetna zabawa dla wszystkich niezaleznie od wieku. Łódka ma wygodną kanapę aby usiąść i rozkoszować się widokami.",
        "Licencja nie jest wymagana w celu uzycia/wypozyczenia.",
        "€200 za łódkę o pojemności max 12 osób. Wymagane wynajęcie kapitana.",
        "Dodatkowe €50 za wynajęcie kapitana."
      ],
      "includes": [
        "Ubezpiecznie OC",
        "GPS",
        "Kotwica",
        "Kamizelki ratunkowe (dzieci oraz dorośli)",
        "Pełne wyposazenie",
        "2 silniki",
        "30xs główny silnik,",
        "Selva - 60 H",
        "Yamaha - 5 koni mechanicznych"
      ],
      "imgs": [
        "./poseidon-1.png",
        "./poseidon-2.png",
        "./poseidon-3.png",
        "./poseidon-4.png"
      ],
      "time": "8",
      "promo": false,
      "discount": 25
    },
    {
      "id": 34,
      "categoryId": "motor-boat",
      "title": "Motorówka Nireus",
      "header": "single-offer-header--motor-boat",
      "listHeader": "category-all-items__item-img--speed-boat img-rentals",
      "priceAdult": "200",
      "priceChild": false,
      "maxPeople": 8,
      "hours": "Do ustalenia.",
      "description": "Motorówka dla 8 osób.",
      "details": [
        "Zarezerwuj prostą w uzytkowaniu łódkę motorową, przezyj wodną przygodę i rozkoszuj się piękną pogodą oraz błękitem wody. Świetna zabawa dla wszystkich niezaleznie od wieku. Łódka ma wygodną kanapę aby usiąść i rozkoszować się widokami.",
        "Licencja nie jest wymagana w celu uzycia/wypozyczenia.",
        "€150 za łódkę o pojemności max 8 osób.",
        "Dodatkowe €50 za wynajęcie kapitana."
      ],
      "includes": [
        "Ubezpiecznie OC",
        "GPS",
        "Kotwica",
        "Kamizelki ratunkowe (dzieci oraz dorośli)",
        "Pełne wyposazenie",
        "2 silniki",
        "30xs główny silnik,",
        "Selva - 60 H",
        "Yamaha - 5 koni mechanicznych"
      ],
      "imgs": [
        "./speed-boat-1.png",
        "./speed-boat-2.png",
        "./speed-boat-3.png",
        "./nireus-2.png",
        "./nireus-1.png"
      ],
      "time": "8",
      "promo": false,
      "discount": 25
    },
    {
      "id": 341,
      "categoryId": "accommodation",
      "title": "Diana Hotel",
      "listHeader": "category-all-items__item-img--diana",
      "priceAdult": "50",
      "description": "Idealne miejsce na wypoczynek dla całej rodziny",
      "time": "24",
      "promo": false,
      "discount": 25,
      "link": "https://www.dianahotels.gr/en/diana-hotel"
    },
    {
      "id": 35,
      "categoryId": "accommodation",
      "title": "Avalon Hotel",
      "listHeader": "category-all-items__item-img--avalon",
      "priceAdult": "50",
      "description": "Idealne miejsce na wypoczynek dla całej rodziny",
      "time": "24",
      "promo": false,
      "discount": 25,
      "link": "http://avalon-palace.com/"
    },
    {
      "id": 36,
      "categoryId": "accommodation",
      "title": "Strada Marina Hotel",
      "listHeader": "category-all-items__item-img--strada-marina",
      "priceAdult": "50",
      "description": "Idealne miejsce na wypoczynek dla całej rodziny",
      "time": "24",
      "promo": false,
      "discount": 25,
      "link": "https://www.stradamarina.gr/"
    },
    {
      "id": 37,
      "categoryId": "accommodation",
      "title": "Plaza Hotel",
      "listHeader": "category-all-items__item-img--plaza",
      "priceAdult": "50",
      "description": "Idealne miejsce na wypoczynek dla całej rodziny",
      "time": "24",
      "promo": false,
      "discount": 25,
      "link": "http://www.plazazante.gr/index.php"
    },
    {
      "id": 38,
      "categoryId": "accommodation",
      "title": "Phoenix Hotel",
      "listHeader": "category-all-items__item-img--phoenix",
      "priceAdult": "50",
      "description": "Idealne miejsce na wypoczynek dla całej rodziny",
      "time": "24",
      "promo": false,
      "discount": 25,
      "link": "http://www.zantephoenix.gr/index.php"
    },
    {
      "id": 39,
      "categoryId": "accommodation",
      "title": "Yria Hotel",
      "listHeader": "category-all-items__item-img--yria",
      "priceAdult": "50",
      "description": "Idealne miejsce na wypoczynek dla całej rodziny",
      "time": "24",
      "promo": false,
      "discount": 25,
      "link": "http://www.yriahotels.gr/yria/index_en.htm"
    },
    {
      "id": 40,
      "categoryId": "accommodation",
      "title": "Alba Hotel",
      "listHeader": "category-all-items__item-img--alba",
      "priceAdult": "50",
      "description": "Idealne miejsce na wypoczynek dla całej rodziny",
      "time": "24",
      "promo": false,
      "discount": 25,
      "link": "http://www.albahotel.gr/"
    }
  ],
  "categories": [
    {
      "id": 100,
      "category": "tours",
      "title": "Wycieczki",
      "header": "category-header--tours"
    },
    {
      "id": 101,
      "category": "auto-moto",
      "title": "Auto-Moto Wynajem",
      "header": "category-header--auto-moto"
    },
    {
      "id": 102,
      "category": "motor-boat",
      "title": "Łodzie Wynajem",
      "header": "category-header--boat-rentals"
    },
    {
      "id": 103,
      "category": "cruises",
      "title": "Rejsy",
      "header": "category-header--cruises"
    },
    {
      "id": 104,
      "category": "transport",
      "title": "Transport",
      "header": "category-header--transport"
    },
    {
      "id": 105,
      "category": "accommodation",
      "title": "Zakwaterowanie",
      "header": "category-header--accommodation"
    }
  ],
  "translations": {
    "nav": {
      "item1": "Wycieczki",
      "item2": "Auto-Moto Wynajem",
      "item3": "Łodzie Wynajem",
      "item4": "Rejsy",
      "item5": "Transport",
      "item6": "Zakwaterowanie",
      "item7": "Kontakt"
    },
    "mainSlider": {
      "slide1": {
        "subHeading": "Zobacz piękną",
        "mainHeading": "Zatokę Wraku",
        "paragraph": "Pojedź na wymarzone wakacje"
      },
      "slide2": {
        "subHeading": "Miejsce narodzin gier olimpijskich",
        "mainHeading": "Olimp",
        "paragraph": "Odkryj z nami!"
      },
      "slide3": {
        "subHeading": "Otwórz oczy na",
        "mainHeading": "Ukryty Świat",
        "paragraph": "Wyspa zółwi oraz zachód słońca"
      }
    },
    "features": {
      "feature1": {
        "title": "Rejsy",
        "content": "Odwiedź ukryte miejsca na wyspie."
      },
      "feature2": {
        "title": "Zawsze najlepsza cena",
        "content": "Zaoszczędź więcej na następne podróze."
      },
      "feature3": {
        "title": "Zwiedź wyspę",
        "content": "Doświadcz prawdziwej przygody."
      },
      "feature4": {
        "title": "Pozwól nam się Tobą zająć",
        "content": "Profesjonalna pomoc zawsze gdy jej potrzebujesz."
      }
    },
    "popularTours": {
      "heading": "Popularne Wycieczki",
      "link": "Zobacz wszystkie oferty"
    },
    "popularServices": {
      "heading": "Popularne Oferty",
      "link": "Zobacz wszystkie",
      "description": "Sprawdź nasze najpopularniejsze oferty i przezyj przygodę swojego zycia. Wybierz co interesuje Cie najbardziej a my zajmiemy się resztą. Pozwól nam poprawdzić się przez magiczną wyspę Zakynthos!",
      "linkLabel": "Zobacz więcej",
      "items": {
        "item1": {
          "title": "Łódki",
          "linkText": "2 łodzie"
        },
        "item2": {
          "title": "Olimp"
        },
        "item3": {
          "title": "Wycieczki",
          "linkText": "15 ofert"
        },
        "item4": {
          "title": "Nurkowanie"
        },
        "item5": {
          "title": "Auto Wynajem",
          "linkText": "9 ofert"
        }
      }
    },
    "browseByCategory": {
      "heading": "Przeglądaj kategorie"
    },
    "support": {
      "heading": "Masz pytanie?",
      "paragraph": "Nie wahaj się do nas zadzwonić. Jesteśmy zespołem ekspertów chętnych do pomocy. Czekamy na Twój telefon."
    },
    "joinUs": {
      "heading": "Dołącz do",
      "highlited": "nas!",
      "description": [
        "Chcesz zostać częścią tej niesamowitej przygody?",
        "Skontaktuj się z nami."
      ],
      "contactUs": "Skontaktuj się z nami!"
    },
    "videoSection": {
      "heading": "Wideo",
      "description": "Sprawdz krótkie video z wycieczki z naszym biurem do Zatoki Wraku. Zarezerwuj swoje miejsce na statku ze szkalnym dnem aby jeszcze dokładniej i intenswyniej poznać to miejsce. Z nami nie umknie Ci zaden szczegół. Poznaj podwodny świat jednocześnie rozkoszując się idealną pogodą i pięknymi widokami!"
    },
    "bookWithUs": {
      "heading": "Dlaczego z nami?",
      "items": {
        "item1": {
          "title": "Do dyspozycji 24/7",
          "content": "Wycieczki, bookingi, wszystkie pytania napisz do nas."
        },
        "item2": {
          "title": "Prosta procedura",
          "content": "Wystarczy jeden telefon. Więcej czasu aby cieszyć się wakacjami."
        },
        "item3": {
          "title": "Obłsuga na światowym poziomie",
          "content": "Codziennie polepszamy nasz system aby Twoje wakacje były jeszcze lepsze."
        }
      }
    },
    "footer": {
      "about": "We are family bussines and we have been showing people the beauty of Zakhyntos for last 30 years. Our aim is to make everyone feels like home and give them the opportunity to see the island from local Zakynthian point of view.",
      "topServices": "Najlepsze okazje",
      "contactInfo": "Kontakt",
      "address": "Adres",
      "phone": "Telefon"
    },
    "featuresList": {
      "heading": "Dlaczego z nami?",
      "items": {
        "item1": "Gwarancja najlepszej ceny",
        "item2": "Obsługa klienta 24/7",
        "item3": "Starannie dobrane oferty",
        "item4": "Darmowe ubezpiecznie podróznicze"
      }
    },
    "buttons": {
      "primary": "Dowiedz się więcej",
      "contact": "Kontakt",
      "details": "Szczegóły",
      "booking": "Wyślij"
    },
    "singleOffer": {
      "overview": {
        "time": "godzin",
        "childPrice": "Dzieci",
        "maxPeople": "Max osób",
        "adultPrice": "Dorośli"
      },
      "offer": {
        "heading1": "Szczegóły",
        "heading2": "Galeria",
        "heading3": "Czego się spodziewać",
        "time": "Godziny",
        "location": "Miejsce wyjazdu i powrotu",
        "includes": "Cena zawiera",
        "excludes": "Cena nie zawiera",
        "seeMore": "Więcej"
      }
    },
    "offersPage": {
      "off": "Zniżka",
      "time": "Godzin",
      "from": "Od"
    },
    "booking": {
      "price": "Cena",
      "from": "Od",
      "form": "Formularz",
      "name": "Imię i nazwisko",
      "email": "Adres email",
      "phone": "Numer telefonu",
      "date": "Data",
      "persons": "Osób",
      "message": "Wiadomość",
      "submit": "Wyślij",
      "successMessage": "Dziękujemy za kontakt!",
      "errorMessage": "Ooops! Coś poszło nie tak, spróbuj jeszcze raz"
    },
    "contactPage": {
      "heading": "Kontakt",
      "address": "Adres",
      "mainOffice": "Telefon do Głównego Biura",
      "boatRentals": "Telefon do wypożyczali łódek",
      "cruises": "Rejsy",
      "tourSpecialist": "Telefon do Obsługi Wycieczek",
      "polishRepresentative": "Polski Rezydent"
    }
  }
}
