<?xml version="1.0" standalone="no"?>
<!DOCTYPE svg PUBLIC "-//W3C//DTD SVG 20010904//EN"
 "http://www.w3.org/TR/2001/REC-SVG-20010904/DTD/svg10.dtd">
<svg version="1.0" xmlns="http://www.w3.org/2000/svg"
 width="776.000000pt" height="776.000000pt" viewBox="0 0 776.000000 776.000000"
 preserveAspectRatio="xMidYMid meet">
<metadata>
Created by potrace 1.11, written by Peter Selinger 2001-2013
</metadata>
<g transform="translate(0.000000,776.000000) scale(0.100000,-0.100000)"
fill="#000000" stroke="none">
<path d="M3370 7023 c1 -5 34 -143 73 -308 71 -294 73 -300 97 -299 14 1 81
13 150 27 175 36 273 47 435 47 221 0 402 -38 543 -115 34 -19 62 -32 62 -29
0 3 -38 52 -84 107 -295 359 -590 522 -1025 566 -120 13 -251 14 -251 4z"/>
<path d="M4225 6143 c-96 -9 -277 -36 -360 -54 -91 -20 -255 -67 -255 -73 0
-10 159 -668 162 -671 2 -2 46 7 98 20 581 150 1241 186 1700 94 214 -43 472
-144 619 -243 30 -20 55 -35 57 -33 6 6 -59 90 -154 199 -325 376 -748 640
-1155 719 -207 40 -523 59 -712 42z"/>
<path d="M5005 4950 c-339 -22 -736 -82 -1032 -157 -46 -11 -63 -20 -63 -32 1
-23 306 -1300 312 -1307 7 -7 178 37 358 91 214 65 404 131 695 243 437 168
626 219 880 242 185 17 444 -4 630 -51 320 -81 658 -281 881 -522 35 -38 66
-68 68 -66 6 6 -144 265 -206 358 -458 683 -983 1078 -1548 1165 -231 36 -705
53 -975 36z"/>
<path d="M6185 3654 c-242 -33 -334 -60 -750 -219 -537 -205 -885 -312 -1266
-389 -699 -142 -1630 -44 -2508 263 -254 89 -167 43 139 -72 529 -201 1058
-312 1540 -324 254 -6 409 6 717 58 426 71 596 120 1518 435 339 116 503 148
770 149 155 0 179 -2 280 -29 151 -39 336 -107 484 -177 68 -33 126 -57 128
-55 2 2 -18 23 -44 46 -155 137 -412 257 -628 294 -90 16 -324 28 -380 20z"/>
<path d="M50 3557 c0 -9 243 -163 405 -257 594 -342 1265 -601 1825 -704 414
-76 959 -85 1550 -25 354 35 701 93 1260 209 552 115 813 143 1114 121 283
-21 411 -57 673 -190 160 -81 338 -190 473 -289 52 -39 97 -69 98 -67 10 9
-72 110 -157 196 -211 212 -461 356 -745 429 -287 74 -556 79 -901 16 -105
-19 -258 -53 -546 -120 -770 -180 -1394 -268 -1904 -268 -251 0 -392 9 -635
42 -735 102 -1559 386 -2309 797 -86 47 -166 93 -178 101 -13 8 -23 12 -23 9z"/>
<path d="M515 3462 c17 -18 201 -119 357 -198 619 -310 1213 -503 1788 -581
185 -25 725 -25 980 1 454 44 819 112 1440 266 644 160 725 176 1000 186 187
8 362 -6 484 -37 200 -51 509 -199 755 -360 41 -27 76 -48 78 -46 2 2 -20 30
-48 63 -189 216 -481 388 -774 457 -174 41 -271 50 -460 44 -252 -9 -313 -21
-890 -182 -664 -185 -1075 -270 -1590 -327 -144 -16 -574 -15 -745 1 -732 69
-1555 310 -2265 663 -66 33 -115 55 -110 50z"/>
<path d="M6120 3463 c-185 -17 -333 -54 -695 -173 -651 -214 -945 -293 -1370
-369 -281 -50 -355 -56 -700 -56 -351 1 -490 12 -799 65 -478 82 -1019 241
-1445 424 -46 20 -86 35 -88 32 -10 -9 309 -154 532 -241 470 -184 917 -299
1350 -347 143 -16 515 -15 680 1 568 54 931 132 1685 361 471 142 604 172 871
192 275 20 457 -11 740 -127 109 -45 302 -139 398 -196 l54 -31 -22 28 c-56
71 -213 192 -341 262 -250 136 -571 202 -850 175z"/>
<path d="M3699 2213 c-25 -66 -79 -226 -79 -234 0 -5 173 -10 396 -11 449 -3
428 1 403 -79 l-14 -44 -390 -5 c-385 -5 -390 -5 -422 -28 -41 -29 -59 -69
-133 -286 -66 -194 -75 -257 -45 -316 9 -17 30 -40 48 -50 31 -19 51 -20 516
-18 l483 3 155 435 c162 458 177 516 150 582 -31 74 -21 73 -570 76 l-487 3
-11 -28z m606 -654 c-4 -11 -17 -51 -29 -87 l-23 -67 -243 -3 c-260 -3 -270
-1 -270 47 1 35 34 107 57 120 11 6 108 11 266 11 247 0 248 0 242 -21z"/>
<path d="M4950 1977 c0 -2 -65 -187 -145 -411 -80 -225 -145 -413 -145 -418 0
-5 170 -7 410 -6 l410 3 26 26 c28 28 124 282 124 328 0 15 -7 37 -16 49 -12
18 -12 22 -1 22 28 0 69 60 103 150 44 120 46 175 5 214 -17 17 -48 32 -73 37
-39 7 -698 13 -698 6z m514 -207 c31 -11 34 -38 7 -71 -19 -23 -24 -24 -205
-27 -113 -3 -186 0 -186 6 0 15 22 76 33 90 12 15 312 17 351 2z m-108 -300
c24 -9 26 -14 21 -48 -4 -22 -17 -46 -32 -59 -25 -22 -34 -23 -206 -23 -98 0
-179 2 -179 3 0 7 39 118 45 127 8 13 316 13 351 0z"/>
<path d="M5965 1970 c-6 -10 -295 -819 -295 -826 0 -2 180 -4 401 -4 351 0
404 2 428 16 38 22 45 37 96 181 46 128 55 188 33 212 -11 11 -10 15 2 19 33
12 68 65 99 150 42 119 47 152 27 190 -34 65 -43 67 -433 70 -243 2 -353 0
-358 -8z m509 -200 c30 -11 35 -44 12 -76 -13 -18 -28 -19 -203 -19 -210 0
-200 -5 -168 73 l14 32 160 0 c88 0 171 -4 185 -10z m-103 -300 c36 -20 17
-98 -28 -119 -14 -7 -92 -11 -198 -11 l-174 0 20 58 c10 31 21 63 24 70 6 15
326 17 356 2z"/>
<path d="M6920 1978 c0 -2 -16 -47 -35 -100 l-34 -97 299 -3 c217 -2 302 -6
311 -15 9 -9 9 -22 3 -45 l-10 -33 -295 -5 c-259 -4 -298 -7 -322 -23 -35 -23
-45 -43 -107 -227 -58 -172 -60 -205 -15 -257 l23 -28 379 -3 378 -3 124 352
c136 386 139 405 87 458 l-26 26 -380 3 c-209 2 -380 2 -380 0z m457 -510 c-2
-7 -13 -39 -23 -71 l-18 -57 -190 2 c-190 3 -191 3 -194 26 -5 35 16 88 41
100 33 16 391 16 384 0z"/>
<path d="M7290 999 c-38 -15 -70 -50 -70 -76 0 -28 32 -50 88 -59 45 -7 55
-26 23 -44 -30 -15 -66 -12 -91 8 -25 20 -70 18 -70 -2 0 -35 28 -50 96 -54
60 -3 74 -1 103 20 42 28 60 73 39 95 -9 8 -39 20 -69 27 -61 13 -72 35 -24
47 20 6 39 4 58 -6 36 -18 79 -10 75 13 -7 36 -100 54 -158 31z"/>
<path d="M3360 980 c0 -16 7 -20 35 -20 19 0 35 -4 35 -9 0 -5 -13 -46 -29
-91 -22 -63 -26 -83 -15 -87 33 -12 47 4 78 92 l32 90 44 5 c32 4 46 10 48 23
3 15 -7 17 -112 17 -109 0 -116 -1 -116 -20z"/>
<path d="M3606 897 c-20 -57 -36 -109 -36 -116 0 -8 10 -11 28 -9 22 2 30 11
42 46 13 38 18 42 46 42 29 0 34 -4 46 -42 13 -37 19 -43 46 -46 37 -4 40 7
18 59 -14 33 -13 34 14 46 39 16 66 68 51 99 -10 23 -15 24 -114 24 l-104 0
-37 -103z m192 41 c-3 -21 -9 -23 -66 -26 l-62 -3 12 26 c10 22 17 25 65 25
51 0 54 -2 51 -22z"/>
<path d="M3932 891 c-51 -60 -92 -112 -92 -115 0 -17 59 -3 80 19 19 20 33 25
72 25 43 0 50 -3 58 -25 7 -19 17 -25 40 -25 16 0 30 3 30 8 0 4 -7 52 -15
107 -8 55 -15 103 -15 108 0 4 -15 7 -33 7 -30 0 -42 -11 -125 -109z m108 4
c0 -32 -2 -35 -30 -35 -36 0 -37 3 -7 40 29 38 37 37 37 -5z"/>
<path d="M4224 938 c18 -177 16 -168 45 -168 23 0 43 20 119 115 l92 115 -33
0 c-29 0 -39 -9 -92 -77 l-60 -78 -3 78 -3 77 -36 0 -36 0 7 -62z"/>
<path d="M4487 893 c-21 -60 -37 -111 -37 -115 0 -5 47 -8 105 -8 93 0 105 2
115 19 5 11 10 22 10 25 0 3 -36 6 -80 6 -78 0 -79 0 -71 23 7 20 16 22 82 25
67 3 88 11 89 35 0 4 -31 7 -70 7 -69 0 -76 3 -64 34 5 13 22 16 84 16 69 0
78 2 83 20 5 19 0 20 -102 20 l-107 0 -37 -107z"/>
<path d="M4786 958 c-46 -126 -63 -178 -58 -183 3 -3 45 -5 93 -5 70 0 88 3
93 16 12 30 6 34 -54 34 -33 0 -60 1 -60 3 0 2 14 40 30 85 17 46 30 85 30 87
0 3 -13 5 -29 5 -25 0 -31 -6 -45 -42z"/>
<path d="M5516 895 c-20 -58 -36 -110 -36 -116 0 -5 12 -9 28 -7 22 2 30 11
42 46 13 38 18 42 46 42 29 0 34 -4 46 -42 13 -38 19 -43 48 -46 35 -4 36 0
15 74 -5 15 0 23 19 32 36 16 61 68 47 98 -10 23 -15 24 -115 24 l-104 0 -36
-105z m192 43 c-3 -20 -10 -23 -60 -26 -58 -3 -64 1 -52 32 5 12 20 16 61 16
51 0 54 -2 51 -22z"/>
<path d="M5845 988 c-2 -7 -20 -57 -40 -112 -19 -54 -35 -100 -35 -103 0 -2
51 -2 113 -1 108 3 112 4 115 26 3 21 1 22 -73 22 -66 0 -76 2 -71 16 3 9 6
20 6 25 0 5 35 9 79 9 70 0 79 2 84 20 5 19 0 20 -69 20 -76 0 -83 4 -61 33 9
12 31 17 87 19 62 3 75 6 78 21 3 15 -7 17 -103 17 -75 0 -107 -4 -110 -12z"/>
<path d="M6087 892 c-20 -59 -37 -111 -37 -115 0 -5 12 -7 28 -5 24 3 30 11
52 76 14 39 27 72 30 72 3 0 22 -34 43 -75 33 -68 40 -75 66 -75 32 0 28 -7
81 148 l29 82 -29 0 c-26 0 -30 -6 -56 -76 l-28 -76 -38 76 c-36 71 -40 76
-71 76 -32 0 -32 -1 -70 -108z"/>
<path d="M6427 993 c-18 -17 -5 -33 28 -33 19 0 35 -5 35 -11 0 -6 -11 -43
-25 -81 -32 -89 -32 -100 2 -96 24 3 30 12 59 93 l32 90 41 3 c28 2 44 9 51
23 10 18 6 19 -103 19 -63 0 -117 -3 -120 -7z"/>
<path d="M6700 896 c-46 -57 -86 -109 -88 -115 -2 -6 9 -11 26 -11 21 0 35 8
46 25 14 22 24 25 70 25 49 0 54 -2 60 -25 5 -20 13 -25 36 -25 35 0 35 -1 18
136 l-11 94 -36 -1 c-33 0 -42 -8 -121 -103z m107 -32 c-3 -3 -19 -4 -36 -2
l-31 3 27 34 28 35 9 -32 c5 -18 7 -35 3 -38z"/>
<path d="M6999 973 c-13 -32 -69 -195 -69 -200 0 -2 40 -3 90 -3 78 0 91 2
100 19 16 30 14 31 -50 31 -33 0 -60 4 -60 8 0 5 13 45 30 90 l30 82 -30 0
c-24 0 -33 -6 -41 -27z"/>
<path d="M5225 983 c-35 -9 -67 -45 -61 -70 5 -16 1 -23 -16 -29 -37 -11 -58
-35 -58 -65 0 -39 21 -47 122 -47 85 1 87 2 82 23 -3 13 1 27 10 34 25 21 19
33 -16 29 -44 -4 -48 21 -8 44 39 22 42 64 4 78 -27 10 -27 11 -59 3z m30 -42
c3 -6 -4 -15 -15 -21 -16 -8 -20 -8 -20 3 0 25 23 36 35 18z m-56 -100 c12
-22 5 -31 -25 -31 -31 0 -41 20 -19 37 25 17 32 17 44 -6z"/>
</g>
</svg>
